{
	"info": {
		"_postman_id": "2a6d1d02-4868-4b66-91e4-647e2012d27e",
		"name": "API - Podcast - El Taller de informática",
		"schema": "https://schema.getpostman.com/json/collection/v2.1.0/collection.json"
	},
	"item": [
		{
			"name": "Obtener todos los albumes",
			"request": {
				"method": "GET",
				"header": [],
				"body": {
					"mode": "raw",
					"raw": ""
				},
				"url": {
					"raw": "http://localhost:8888/albumes/user/ABC123/all",
					"protocol": "http",
					"host": [
						"localhost"
					],
					"port": "8888",
					"path": [
						"albumes",
						"user",
						"ABC123",
						"all"
					]
				}
			},
			"response": []
		},
		{
			"name": "Ingresar nuevo album",
			"request": {
				"method": "POST",
				"header": [
					{
						"key": "Content-Type",
						"name": "Content-Type",
						"value": "application/json",
						"type": "text"
					}
				],
				"body": {
					"mode": "raw",
					"raw": "{\n    \"user\": 1,\n    \"userToken\": \"ABC123\",\n    \"name\": \"Holis\",\n    \"artist\": \"Opeth\",\n    \"img\": \"link/img.jpg\",\n    \"tracks\": [\n        {\n            \"name\": \"Sorceress\",\n            \"duration\": \"5:13\",\n            \"mp3\": \"s3/url/link.mp3\"\n        },\n        {\n            \"name\": \"Sorceress 2\",\n            \"duration\": \"3:49\",\n            \"mp3\": \"s3/url/link.mp3\"\n        }\n    ]\n}"
				},
				"url": {
					"raw": "http://localhost:8888/albumes/user/new",
					"protocol": "http",
					"host": [
						"localhost"
					],
					"port": "8888",
					"path": [
						"albumes",
						"user",
						"new"
					]
				}
			},
			"response": []
		},
		{
			"name": "Actualizar album por ID",
			"request": {
				"method": "POST",
				"header": [
					{
						"key": "Content-Type",
						"name": "Content-Type",
						"value": "application/json",
						"type": "text"
					}
				],
				"body": {
					"mode": "raw",
					"raw": "{\n    \"user\": 1,\n    \"userToken\": \"ABC123\",\n    \"name\": \"HOLIS II\",\n    \"artist\": \"Opeth\",\n    \"img\": \"link/img.jpg\",\n    \"tracks\": [\n        {\n            \"name\": \"Sorceress\",\n            \"duration\": \"5:13\",\n            \"mp3\": \"s3/url/link.mp3\"\n        },\n        {\n            \"name\": \"Sorceress 2\",\n            \"duration\": \"3:49\",\n            \"mp3\": \"s3/url/link.mp3\"\n        }\n    ],\n    \"id\": \"ALB-ABA-140136\"\n}"
				},
				"url": {
					"raw": "http://localhost:8888/albumes/user/update",
					"protocol": "http",
					"host": [
						"localhost"
					],
					"port": "8888",
					"path": [
						"albumes",
						"user",
						"update"
					]
				}
			},
			"response": []
		},
		{
			"name": "Obtener album por ID y User",
			"request": {
				"method": "GET",
				"header": [],
				"body": {
					"mode": "raw",
					"raw": ""
				},
				"url": {
					"raw": "http://localhost:8888/albumes/user/ABC123/id/ALB-ABA-140136",
					"protocol": "http",
					"host": [
						"localhost"
					],
					"port": "8888",
					"path": [
						"albumes",
						"user",
						"ABC123",
						"id",
						"ALB-ABA-140136"
					]
				}
			},
			"response": []
		},
		{
			"name": "Obtener usuario por token",
			"request": {
				"method": "GET",
				"header": [],
				"body": {
					"mode": "raw",
					"raw": ""
				},
				"url": {
					"raw": "http://localhost:8888/user/token/ABC-123",
					"protocol": "http",
					"host": [
						"localhost"
					],
					"port": "8888",
					"path": [
						"user",
						"token",
						"ABC-123"
					]
				}
			},
			"response": []
		},
		{
			"name": "Login usuario",
			"request": {
				"method": "POST",
				"header": [
					{
						"key": "Content-Type",
						"name": "Content-Type",
						"value": "application/json",
						"type": "text"
					}
				],
				"body": {
					"mode": "raw",
					"raw": "{\n\t\"usuario\":\"lexcasa\",\n\t\"clave\":\"alex123\"\n}"
				},
				"url": {
					"raw": "http://localhost:8888/user/login",
					"protocol": "http",
					"host": [
						"localhost"
					],
					"port": "8888",
					"path": [
						"user",
						"login"
					]
				}
			},
			"response": []
		},
		{
			"name": "Ingresar usuario",
			"request": {
				"method": "POST",
				"header": [
					{
						"key": "Content-Type",
						"name": "Content-Type",
						"value": "application/json",
						"type": "text"
					}
				],
				"body": {
					"mode": "raw",
					"raw": "{\n    \"nombre\": \"Alex\",\n    \"usuario\": \"abaco\",\n    \"clave\": \"111\",\n    \"activo\": true\n}"
				},
				"url": {
					"raw": "http://localhost:8888/user/new",
					"protocol": "http",
					"host": [
						"localhost"
					],
					"port": "8888",
					"path": [
						"user",
						"new"
					]
				}
			},
			"response": []
		},
		{
			"name": "Actualizar usuario",
			"request": {
				"method": "POST",
				"header": [
					{
						"key": "Content-Type",
						"name": "Content-Type",
						"value": "application/json",
						"type": "text"
					}
				],
				"body": {
					"mode": "raw",
					"raw": "{\n    \"id\": 123,\n    \"token\": \"ABC-123\",\n    \"nombre\": \"Alex 4\",\n    \"usuario\": \"lexcasa\",\n    \"activo\": true\n}"
				},
				"url": {
					"raw": "http://localhost:8888/user/update",
					"protocol": "http",
					"host": [
						"localhost"
					],
					"port": "8888",
					"path": [
						"user",
						"update"
					]
				}
			},
			"response": []
		}
	]
}